%YAML 1.1
%TAG !u! tag:unity3d.com,2011:
--- !u!114 &11400000
MonoBehaviour:
  m_ObjectHideFlags: 0
  m_CorrespondingSourceObject: {fileID: 0}
  m_PrefabInstance: {fileID: 0}
  m_PrefabAsset: {fileID: 0}
  m_GameObject: {fileID: 0}
  m_Enabled: 1
  m_EditorHideFlags: 0
  m_Script: {fileID: 11500000, guid: 00c344a592c6ed249a042dcd756fffbe, type: 3}
  m_Name: MobsImageData
  m_EditorClassIdentifier: 
  ImageMobs:
  - MobsImage:
    - {fileID: 1435594153905484796, guid: af09896b56e2927468529e28a438e579, type: 3}
    - {fileID: 2979412669363659901, guid: af09896b56e2927468529e28a438e579, type: 3}
    - {fileID: 779800875275762345, guid: af09896b56e2927468529e28a438e579, type: 3}
    - {fileID: 5821230195283724950, guid: af09896b56e2927468529e28a438e579, type: 3}
    - {fileID: 7516698786758832298, guid: af09896b56e2927468529e28a438e579, type: 3}
    - {fileID: 5767124052082980154, guid: af09896b56e2927468529e28a438e579, type: 3}
    MobDie: {fileID: 0}
    BossImage: {fileID: 0}
    BossDie: {fileID: 0}
  - MobsImage:
    - {fileID: 4302396151035071551, guid: af09896b56e2927468529e28a438e579, type: 3}
    - {fileID: 2459265158411563886, guid: af09896b56e2927468529e28a438e579, type: 3}
    - {fileID: -6775065367532190534, guid: af09896b56e2927468529e28a438e579, type: 3}
    - {fileID: -6495353592534769661, guid: af09896b56e2927468529e28a438e579, type: 3}
    - {fileID: -4931732180336928932, guid: af09896b56e2927468529e28a438e579, type: 3}
    - {fileID: -3747553358213749650, guid: af09896b56e2927468529e28a438e579, type: 3}
    MobDie: {fileID: 0}
    BossImage: {fileID: 0}
    BossDie: {fileID: 0}
  - MobsImage:
    - {fileID: -6636714950632876296, guid: af09896b56e2927468529e28a438e579, type: 3}
    - {fileID: 8839651128148340415, guid: af09896b56e2927468529e28a438e579, type: 3}
    - {fileID: 1800460398593713138, guid: af09896b56e2927468529e28a438e579, type: 3}
    - {fileID: 3153979355062389383, guid: af09896b56e2927468529e28a438e579, type: 3}
    - {fileID: -5006788354822937659, guid: af09896b56e2927468529e28a438e579, type: 3}
    - {fileID: -8850111612393693526, guid: af09896b56e2927468529e28a438e579, type: 3}
    MobDie: {fileID: 0}
    BossImage: {fileID: 0}
    BossDie: {fileID: 0}
  - MobsImage:
    - {fileID: 5717499961332605709, guid: af09896b56e2927468529e28a438e579, type: 3}
    - {fileID: 5175684153503573545, guid: af09896b56e2927468529e28a438e579, type: 3}
    - {fileID: -8315693408478707094, guid: af09896b56e2927468529e28a438e579, type: 3}
    - {fileID: 1876254047230681199, guid: af09896b56e2927468529e28a438e579, type: 3}
    - {fileID: -7596622654068422190, guid: af09896b56e2927468529e28a438e579, type: 3}
    - {fileID: 8657483617211598588, guid: af09896b56e2927468529e28a438e579, type: 3}
    MobDie: {fileID: 0}
    BossImage: {fileID: 0}
    BossDie: {fileID: 0}
  - MobsImage:
    - {fileID: -4356160298796723555, guid: af09896b56e2927468529e28a438e579, type: 3}
    - {fileID: -4602049057342182601, guid: af09896b56e2927468529e28a438e579, type: 3}
    - {fileID: 1285244199261958878, guid: af09896b56e2927468529e28a438e579, type: 3}
    - {fileID: 1343640915079898841, guid: af09896b56e2927468529e28a438e579, type: 3}
    - {fileID: 6715422722929330261, guid: af09896b56e2927468529e28a438e579, type: 3}
    - {fileID: 1840360132289090002, guid: af09896b56e2927468529e28a438e579, type: 3}
    MobDie: {fileID: 0}
    BossImage: {fileID: 0}
    BossDie: {fileID: 0}
  - MobsImage:
    - {fileID: -1429797717528885542, guid: af09896b56e2927468529e28a438e579, type: 3}
    - {fileID: 733476371128648780, guid: af09896b56e2927468529e28a438e579, type: 3}
    - {fileID: -5900558608270903187, guid: af09896b56e2927468529e28a438e579, type: 3}
    - {fileID: -518079599762908685, guid: af09896b56e2927468529e28a438e579, type: 3}
    - {fileID: -8180018770489335817, guid: af09896b56e2927468529e28a438e579, type: 3}
    - {fileID: -1818051828585776452, guid: af09896b56e2927468529e28a438e579, type: 3}
    MobDie: {fileID: 0}
    BossImage: {fileID: 0}
    BossDie: {fileID: 0}
  - MobsImage:
    - {fileID: -780291210061611214, guid: af09896b56e2927468529e28a438e579, type: 3}
    - {fileID: -6540284539919240896, guid: af09896b56e2927468529e28a438e579, type: 3}
    - {fileID: 6399975790470199607, guid: af09896b56e2927468529e28a438e579, type: 3}
    - {fileID: 2403604767587051030, guid: af09896b56e2927468529e28a438e579, type: 3}
    - {fileID: -2121268320020718792, guid: af09896b56e2927468529e28a438e579, type: 3}
    - {fileID: -7033892936950446126, guid: af09896b56e2927468529e28a438e579, type: 3}
    MobDie: {fileID: 0}
    BossImage: {fileID: 0}
    BossDie: {fileID: 0}
  - MobsImage:
    - {fileID: -620422622279562734, guid: af09896b56e2927468529e28a438e579, type: 3}
    - {fileID: 1066405903341765935, guid: af09896b56e2927468529e28a438e579, type: 3}
    - {fileID: -289726051072323586, guid: af09896b56e2927468529e28a438e579, type: 3}
    - {fileID: 3080217786945912870, guid: af09896b56e2927468529e28a438e579, type: 3}
    - {fileID: 707202152457143588, guid: af09896b56e2927468529e28a438e579, type: 3}
    - {fileID: -4795235359944406798, guid: af09896b56e2927468529e28a438e579, type: 3}
    MobDie: {fileID: 0}
    BossImage: {fileID: 0}
    BossDie: {fileID: 0}
  - MobsImage:
    - {fileID: -5195152173052921050, guid: af09896b56e2927468529e28a438e579, type: 3}
    - {fileID: -7232030948931968492, guid: af09896b56e2927468529e28a438e579, type: 3}
    - {fileID: -7363116984424184101, guid: af09896b56e2927468529e28a438e579, type: 3}
    - {fileID: -666386487549384623, guid: af09896b56e2927468529e28a438e579, type: 3}
    - {fileID: -3073966141846338120, guid: af09896b56e2927468529e28a438e579, type: 3}
    - {fileID: 2553124273214387578, guid: af09896b56e2927468529e28a438e579, type: 3}
    MobDie: {fileID: 0}
    BossImage: {fileID: 0}
    BossDie: {fileID: 0}
  - MobsImage:
    - {fileID: 2806417130416439267, guid: af09896b56e2927468529e28a438e579, type: 3}
    - {fileID: 229184207372465799, guid: af09896b56e2927468529e28a438e579, type: 3}
    - {fileID: 3071754490641505707, guid: af09896b56e2927468529e28a438e579, type: 3}
    - {fileID: 7091647760014629578, guid: af09896b56e2927468529e28a438e579, type: 3}
    - {fileID: -5584722119692773400, guid: af09896b56e2927468529e28a438e579, type: 3}
    - {fileID: 8560463750364086136, guid: af09896b56e2927468529e28a438e579, type: 3}
    MobDie: {fileID: 0}
    BossImage: {fileID: 0}
    BossDie: {fileID: 0}
